…
<p align="center">

<img src="manuscript_figs/png/FigS5.png" width="70%" height="70%"/>

</p>

#### High AMR subclade tree

``` r
# Number of AMR classes in each sample in the high-AMR clade
amrfindersummary[amrfindersummary$`Element type`=="AMR" & amrfindersummary$sample_name %in% high_amr_clade & amrfindersummary$Class!="EFFLUX",c(1,12)] %>% distinct() %>% group_by(sample_name) %>% count()
```

    # A tibble: 241 × 2
    # Groups:   sample_name [241]
       sample_name     n
       <chr>       <int>
     1 100N            5
     2 101N            4
     3 23              5
     4 256             5
     5 263             5
     6 264             4
     7 282             5
     8 290             4
     9 291             5
    10 292             4
    # ℹ 231 more rows
…
